<svg xmlns="http://www.w3.org/2000/svg" width="20" height="20" viewBox="0 0 20 20">
  <metadata><?xpacket begin="﻿" id="W5M0MpCehiHzreSzNTczkc9d"?>
<x:xmpmeta xmlns:x="adobe:ns:meta/" x:xmptk="Adobe XMP Core 5.6-c142 79.160924, 2017/07/13-01:06:39        ">
   <rdf:RDF xmlns:rdf="http://www.w3.org/1999/02/22-rdf-syntax-ns#">
      <rdf:Description rdf:about=""/>
   </rdf:RDF>
</x:xmpmeta>
                                                                                                    
                                                                                                    
                                                                                                    
                                                                                                    
                                                                                                    
                                                                                                    
                                                                                                    
                                                                                                    
                                                                                                    
                                                                                                    
                                                                                                    
                                                                                                    
                                                                                                    
                                                                                                    
                                                                                                    
                                                                                                    
                                                                                                    
                                                                                                    
                                                                                                    
                                                                                                    
                           
<?xpacket end="w"?></metadata>
<defs>
    <style>
      .cls-1 {
        fill: #d52268;
        fill-rule: evenodd;
      }
    </style>
  </defs>
  <path class="cls-1" d="M68,1134H66v-1a1,1,0,1,0-2,0v1H61v-1a1,1,0,1,0-2,0v1H56v-1a1,1,0,1,0-2,0v1H52a2,2,0,0,0-2,2v14a2,2,0,0,0,2,2H68a2,2,0,0,0,2-2v-14A2,2,0,0,0,68,1134Zm-16,16v-14h2v1a1,1,0,1,0,2,0v-1h3v1a1,1,0,1,0,2,0v-1h3v1a1,1,0,1,0,2,0v-1h2l0,14H52Zm1-9h2v-2H53v2Zm4,0h2v-2H57v2Zm4,0h2v-2H61v2Zm4,0h2v-2H65v2Zm-12,4h2v-2H53v2Zm4,0h2v-2H57v2Zm4,0h2v-2H61v2Zm4,0h2v-2H65v2Zm-12,4h2v-2H53v2Zm4,0h2v-2H57v2Z" transform="translate(-50 -1132)"/>
</svg>
