<svg xmlns="http://www.w3.org/2000/svg" width="31" height="27.88" viewBox="0 0 31 27.88">
  <metadata><?xpacket begin="﻿" id="W5M0MpCehiHzreSzNTczkc9d"?>
<x:xmpmeta xmlns:x="adobe:ns:meta/" x:xmptk="Adobe XMP Core 5.6-c142 79.160924, 2017/07/13-01:06:39        ">
   <rdf:RDF xmlns:rdf="http://www.w3.org/1999/02/22-rdf-syntax-ns#">
      <rdf:Description rdf:about=""/>
   </rdf:RDF>
</x:xmpmeta>
                                                                                                    
                                                                                                    
                                                                                                    
                                                                                                    
                                                                                                    
                                                                                                    
                                                                                                    
                                                                                                    
                                                                                                    
                                                                                                    
                                                                                                    
                                                                                                    
                                                                                                    
                                                                                                    
                                                                                                    
                                                                                                    
                                                                                                    
                                                                                                    
                                                                                                    
                                                                                                    
                           
<?xpacket end="w"?></metadata>
<defs>
    <style>
      .cls-1 {
        fill: #d52268;
        fill-rule: evenodd;
      }
    </style>
  </defs>
  <path class="cls-1" d="M589.789,1336.36h0a0.869,0.869,0,0,0,.733.4,0.9,0.9,0,0,0,.474-0.14,0.883,0.883,0,0,0,.259-1.21c-0.014-.03-1.39-2.25-0.268-3.69a3.674,3.674,0,0,0,.418-3.72,6.442,6.442,0,0,0-.964-1.69,0.873,0.873,0,0,0-1.34,1.12c0.015,0.02,1.526,1.91.513,3.2C587.719,1333.07,589.7,1336.22,589.789,1336.36Zm3.328,0h0a0.871,0.871,0,0,0,.732.4,0.868,0.868,0,0,0,.853-0.7,0.846,0.846,0,0,0-.12-0.65c-0.013-.03-1.389-2.25-0.266-3.69a3.679,3.679,0,0,0,.417-3.72,6.461,6.461,0,0,0-.964-1.69,0.873,0.873,0,0,0-1.34,1.12c0.015,0.02,1.527,1.9.514,3.2C591.055,1333.06,593.031,1336.22,593.117,1336.36Zm-20.824.23a0.869,0.869,0,0,0,.733.4,0.872,0.872,0,0,0,.853-0.69,0.9,0.9,0,0,0-.121-0.67c-0.014-.02-1.4-2.23-0.266-3.68a3.674,3.674,0,0,0,.417-3.72,6.551,6.551,0,0,0-.963-1.69,0.874,0.874,0,0,0-1.342,1.12c0.015,0.02,1.522,1.91.515,3.21C570.225,1333.3,572.2,1336.44,572.293,1336.59Zm3.328,0a0.872,0.872,0,0,0,.734.4,0.875,0.875,0,0,0,.733-1.35c-0.014-.03-1.392-2.25-0.268-3.69a3.674,3.674,0,0,0,.418-3.72,6.5,6.5,0,0,0-.963-1.69,0.871,0.871,0,0,0-1.229-.11,0.887,0.887,0,0,0-.111,1.24c0.015,0.01,1.528,1.89.513,3.2C573.553,1333.3,575.529,1336.44,575.621,1336.59Zm21.22,12.33h-0.58a12.848,12.848,0,0,0-10.958-11.74,2.575,2.575,0,0,0,.79-1.87,2.6,2.6,0,0,0-5.2,0,2.572,2.572,0,0,0,.79,1.87,12.848,12.848,0,0,0-10.959,11.74h-0.579a2.157,2.157,0,0,0-2.148,2.16v0.62a2.159,2.159,0,0,0,2.148,2.17h26.7a2.16,2.16,0,0,0,2.148-2.17v-0.62A2.157,2.157,0,0,0,596.841,1348.92Zm-26.85,2.16a0.147,0.147,0,0,1,.153-0.15h18.638a1.005,1.005,0,0,0,0-2.01H572.726a10.8,10.8,0,0,1,10.7-9.86h0.134a10.8,10.8,0,0,1,10.7,9.86H591.99a1.005,1.005,0,0,0,0,2.01h4.851a0.147,0.147,0,0,1,.153.15v0.62a0.156,0.156,0,0,1-.153.16h-26.7a0.155,0.155,0,0,1-.153-0.16v-0.62Zm13.734-15.23a0.975,0.975,0,0,0-.232.13,1.493,1.493,0,0,0-.234-0.13,0.58,0.58,0,0,1-.373-0.54,0.6,0.6,0,0,1,.629-0.59A0.585,0.585,0,0,1,583.725,1335.85Z" transform="translate(-568 -1326)"/>
</svg>
