<svg xmlns="http://www.w3.org/2000/svg" width="60" height="60" viewBox="0 0 60 60">
<defs>
    <style>
      .cls-1 {
        fill: #d52268;
        fill-rule: evenodd;
      }
    </style>
  </defs>
  <path class="cls-1" d="M731,708.994A30.009,30.009,0,1,0,760.989,739,30.034,30.034,0,0,0,731,708.994h0Zm0,57.707A27.7,27.7,0,1,1,758.68,739,27.719,27.719,0,0,1,731,766.7h0Zm0,0,14.13-40L727.4,746.651l-10.678-8.55a1.155,1.155,0,0,0-1.442,1.8l11.533,9.23a1.166,1.166,0,0,0,.721.254,1.153,1.153,0,0,0,.868-0.389l18.448-20.772a1.152,1.152,0,1,0-1.722-1.532h0Zm0,0" transform="translate(-701 -709)"/>
</svg>
