<svg xmlns="http://www.w3.org/2000/svg" width="31" height="31" viewBox="0 0 31 31">
  <metadata><?xpacket begin="﻿" id="W5M0MpCehiHzreSzNTczkc9d"?>
<x:xmpmeta xmlns:x="adobe:ns:meta/" x:xmptk="Adobe XMP Core 5.6-c142 79.160924, 2017/07/13-01:06:39        ">
   <rdf:RDF xmlns:rdf="http://www.w3.org/1999/02/22-rdf-syntax-ns#">
      <rdf:Description rdf:about=""/>
   </rdf:RDF>
</x:xmpmeta>
                                                                                                    
                                                                                                    
                                                                                                    
                                                                                                    
                                                                                                    
                                                                                                    
                                                                                                    
                                                                                                    
                                                                                                    
                                                                                                    
                                                                                                    
                                                                                                    
                                                                                                    
                                                                                                    
                                                                                                    
                                                                                                    
                                                                                                    
                                                                                                    
                                                                                                    
                                                                                                    
                           
<?xpacket end="w"?></metadata>
<defs>
    <style>
      .cls-1 {
        fill: #d52268;
        fill-rule: evenodd;
      }
    </style>
  </defs>
  <path class="cls-1" d="M270,1353v-28a1,1,0,0,0-2,0v4.2a2.179,2.179,0,0,0-2.2-2.2H253.2a2.179,2.179,0,0,0-2.2,2.2,2.179,2.179,0,0,0-2.2-2.2h-3.6a2.179,2.179,0,0,0-2.2,2.2V1325a1,1,0,0,0-2,0v28a1,1,0,0,0,0,2h29A1,1,0,0,0,270,1353Zm-21.2-21H257v2H243v-2h5.8Zm4.2,13.3v-0.6a0.187,0.187,0,0,1,.2-0.2H257v1h-3.8A0.187,0.187,0,0,1,253,1345.3Zm11-8.8v2h-5v-2h5Zm0,10h-5v-2h5v2Zm0-6v2h-5v-2h5Zm-5,8h5v2h-5v-2Zm-14-3.2v-0.6a0.187,0.187,0,0,1,.2-0.2h3.6a0.187,0.187,0,0,1,.2.2v0.6a0.187,0.187,0,0,1-.2.2h-3.6A0.187,0.187,0,0,1,245,1345.3Zm19-10.8h-5V1332h5v2.5Zm-13.02,11c0.006-.07.02-0.13,0.02-0.2,0,0.07.014,0.13,0.02,0.2h-0.04Zm-2.18,2H257v2H243v-2h5.8Zm17.2,0h2v2h-2v-2Zm-9-5h-3.8a2.179,2.179,0,0,0-2.2,2.2,2.179,2.179,0,0,0-2.2-2.2h-3.6a2.179,2.179,0,0,0-2.2,2.2V1336h14v6.5Zm-13.98,3H243v-0.2C243,1345.37,243.014,1345.43,243.02,1345.5Zm22.98,6h2v1.5h-2v-1.5Zm2-6h-2V1336h2v9.5Zm-11,6v1.5H243v-1.5h14Zm2,1h5v0.5h-5v-0.5Zm9-18.5h-2v-2h2v2Zm-2-4.2a0.187,0.187,0,0,1-.2.2H253.2a0.187,0.187,0,0,1-.2-0.2v-0.6a0.187,0.187,0,0,1,.2-0.2h12.6a0.187,0.187,0,0,1,.2.2v0.6Zm-17,0a0.187,0.187,0,0,1-.2.2h-3.6a0.187,0.187,0,0,1-.2-0.2v-0.6a0.187,0.187,0,0,1,.2-0.2h3.6a0.187,0.187,0,0,1,.2.2v0.6Zm19,0.2h-0.02c0.006-.07.02-0.13,0.02-0.2v0.2Zm-16.98,0h-0.04c0.006-.07.02-0.13,0.02-0.2C251,1329.87,251.014,1329.93,251.02,1330Zm-8,0H243v-0.2C243,1329.87,243.014,1329.93,243.02,1330Z" transform="translate(-240 -1324)"/>
</svg>
